Unit Project 03
…
# for some reason it is impossible for me to get the mode i think it's bedtime
# it turns out the mode function does not give you the mode. i was lied to

# thank you Ken Williams on stack overflow for this code
Mode <- function(x) {
    ux <- unique(x)
    ux[which.max(tabulate(match(x, ux)))]}

# grouping each species and getting the mode of each, putting it into a new data frame
clean_iris_chrom_modes <- clean_iris_chrom %>% group_by(species) %>% summarize(across(where(is.numeric), Mode))
  
# print the first 20 lines
clean_iris_chrom_modes %>% print(n = 20)

## # A tibble: 211 × 3
##    species        parsed_n sporophytic
##    <chr>             <dbl>       <dbl>
##  1 acutiloba            10          20
##  2 afghanica            11          22
##  3 aitchisonii          17          34
##  4 alberti              12          24
##  5 albicans             22          44
##  6 albomarginata        25          50
##  7 anguifuga            17          34
##  8 antilibanotica       10          20
##  9 aphylla              24          48
## 10 arenaria             11          22
## 11 assadiana            10          20
## 12 atrofusca            10          20
## 13 atropatana            9          18
## 14 atropurpurea         10          20
## 15 aucheri              12          24
## 16 auranitica           10          20
## 17 barnumiae            10          20
## 18 basaltica            10          20
## 19 bicapitata           20          40
## 20 biglumis             20          40
## # ℹ 191 more rows
…
